<svg xmlns="http://www.w3.org/2000/svg" width="14" height="2" viewBox="0 0 14 2">
    <g fill="none" fill-rule="evenodd">
        <path d="M-5-11h24v24H-5z"/>
        <path fill="#000" fill-opacity=".5" d="M0 2V0h14v2z"/>
    </g>
</svg>
