<?xml version="1.0" encoding="UTF-8"?>
<svg width="18px" height="18px" viewBox="0 0 18 18" version="1.1" xmlns="http://www.w3.org/2000/svg" xmlns:xlink="http://www.w3.org/1999/xlink">
    <!-- Generator: sketchtool 50.2 (55047) - http://www.bohemiancoding.com/sketch -->
    <title>02419D71-5C06-472D-9B31-A85C31C2ACBD</title>
    <desc>Created with sketchtool.</desc>
    <defs></defs>
    <g id="Listing" stroke="none" stroke-width="1" fill="none" fill-rule="evenodd">
        <g id="Henderson-Listing-Grid-Desktop-HD" transform="translate(-138.000000, -449.000000)">
            <g id="Toolbar" transform="translate(135.000000, 440.000000)">
                <g id="Filter-Btn" transform="translate(0.000000, 6.000000)">
                    <g id="ic_tune">
                        <polygon id="Bounds" points="0 0 24 0 24 24 0 24"></polygon>
                        <path d="M3,17 L3,19 L9,19 L9,17 L3,17 L3,17 Z M3,5 L3,7 L13,7 L13,5 L3,5 L3,5 Z M13,21 L13,19 L21,19 L21,17 L13,17 L13,15 L11,15 L11,21 L13,21 L13,21 Z M7,9 L7,11 L3,11 L3,13 L7,13 L7,15 L9,15 L9,9 L7,9 L7,9 Z M21,13 L21,11 L11,11 L11,13 L21,13 L21,13 Z M15,9 L17,9 L17,7 L21,7 L21,5 L17,5 L17,3 L15,3 L15,9 L15,9 Z" id="Icon" fill="#212E4E"></path>
                    </g>
                </g>
            </g>
        </g>
    </g>
</svg>