<svg xmlns="http://www.w3.org/2000/svg" xmlns:xlink="http://www.w3.org/1999/xlink" width="50" height="76" viewBox="0 0 50 76">
    <defs>
        <path id="a" d="M49.948 45.474V49.1C49.114 63.763 38.285 75.448 25 75.448c-13.831 0-25-12.665-25-28.172C0 31.735 11.767 14.852 24.353.62a.863.863 0 0 1 .513-.3.861.861 0 0 1 .78.3C37.749 14.304 49.094 30.44 49.949 45.474zM25 2.587C12.778 16.542 1.724 32.947 1.724 47.275c0 14.62 10.46 26.37 23.276 26.37 12.816 0 23.276-11.75 23.276-26.37 0-14.328-11.054-30.733-23.276-44.688zM9.537 44.408c.49-.003.922.491.862.983-.56 5.98 2.906 13.53 7.328 16.626.373.264.476.849.215 1.228-.261.378-.839.482-1.213.218-5.118-3.584-8.686-11.48-8.055-18.235.053-.443.328-.74.863-.82z"/>
    </defs>
    <g fill="none" fill-rule="evenodd">
        <mask id="b" fill="#fff">
            <use xlink:href="#a"/>
        </mask>
        <path fill="#FFBD00" d="M49.948.314H-.017v75.162h49.965z" mask="url(#b)"/>
    </g>
</svg>
