<svg xmlns="http://www.w3.org/2000/svg" width="60" height="60" viewBox="0 0 60 60">
    <g fill="none" fill-rule="evenodd">
        <path fill="#000" d="M0 0h60v60H0z"/>
        <path d="M18 18h24v24H18z"/>
        <path fill="#A5B1BA" d="M38 29H25.83l5.59-5.59L30 22l-8 8 8 8 1.41-1.41L25.83 31H38z"/>
    </g>
</svg>
