<svg xmlns="http://www.w3.org/2000/svg" width="34" height="34" viewBox="0 0 34 34">
    <g fill="none" fill-rule="evenodd" opacity=".498" transform="translate(1 1)">
        <circle cx="16" cy="16" r="16" stroke="#B1A598" stroke-width="2"/>
        <path fill="#B1A598" fill-rule="nonzero" d="M15.988 9.913a1.873 1.873 0 0 1 1.879 1.864 1.873 1.873 0 0 1-1.879 1.864 1.874 1.874 0 0 1-1.878-1.864c0-1.028.843-1.864 1.878-1.864zm0 6.367c2.502 0 4.537-2.02 4.537-4.503 0-2.484-2.034-4.504-4.537-4.504-2.501 0-4.536 2.02-4.536 4.504 0 2.483 2.035 4.503 4.536 4.503zm1.848 3.676a8.533 8.533 0 0 0 2.634-1.083 1.314 1.314 0 0 0 .417-1.82 1.334 1.334 0 0 0-1.833-.414 5.795 5.795 0 0 1-6.108 0 1.333 1.333 0 0 0-1.833.415 1.314 1.314 0 0 0 .416 1.82 8.546 8.546 0 0 0 2.635 1.083l-2.536 2.518a1.313 1.313 0 0 0 0 1.866c.25.248.588.386.94.386s.69-.138.94-.386L16 21.866l2.494 2.475c.519.515 1.36.515 1.879 0a1.312 1.312 0 0 0 0-1.866l-2.536-2.519z"/>
    </g>
</svg>
