<?xml version="1.0" encoding="utf-8"?>
<!-- Generator: Adobe Illustrator 22.1.0, SVG Export Plug-In . SVG Version: 6.00 Build 0)  -->
<svg version="1.1" id="Слой_1" xmlns="http://www.w3.org/2000/svg" xmlns:xlink="http://www.w3.org/1999/xlink" x="0px" y="0px"
	 viewBox="0 0 300 300" style="enable-background:new 0 0 300 300;" xml:space="preserve">
<style type="text/css">
	.st0{fill:none;stroke:#FFC001;stroke-width:10;}
	.st1{fill:#FFFFFF;}
</style>
<title>outlne</title>
<desc>Created with Sketch.</desc>
<g id="Design">
	<g id="Euromat3D-Main-Desktop-HD" transform="translate(-205.000000, -204.000000)">
		<g id="Slider" transform="translate(0.000000, 80.000000)">
			<g id="Txt" transform="translate(205.000000, 124.000000)">
				<g id="outlne">
					<path id="Rectangle-27_2_" class="st0" d="M295,147.6V5H5v290h63.5"/>
					<path id="EUROMAT-_x7C_-3D" class="st1" d="M51,54.8h-7V44.1h7v1.3h-5.6v3.3h5.4V50h-5.4v3.6H51V54.8z M71.3,49.4
						c0,1.1,0,1.8,0,2.3c0,0.5-0.1,0.9-0.3,1.3c-0.5,1.3-1.8,1.9-3.7,1.9s-3.2-0.6-3.7-1.9c-0.1-0.4-0.2-0.8-0.3-1.3
						c0-0.5,0-1.2,0-2.3v-5.3h1.4v5.3c0,1.6,0,2.6,0.3,3.2c0.3,0.6,1,1,2.3,1c1.3,0,2-0.3,2.3-0.9s0.3-1.7,0.3-3.2v-5.3h1.4V49.4z
						 M92.3,54.8h-1.7l-2-3.1c-0.9-1.5-1-1.5-2.1-1.5h-1v4.5h-1.4V44.1h3.6c2.4,0,4.2,0.1,4.2,3.1c0,1.5-0.5,2.8-2.6,2.9L92.3,54.8z
						 M90.4,47.2c0-1.9-1-1.8-2.7-1.8h-2.3v3.6H88C89.7,48.9,90.4,48.9,90.4,47.2z M112.7,49.4c0,3.3-0.1,5.5-4.2,5.5
						c-4.2,0-4.2-2.3-4.2-5.5c0-3.2,0-5.4,4.2-5.4S112.7,46.2,112.7,49.4z M111.2,49.4c0-2-0.1-2.8-0.5-3.3c-0.4-0.6-1-0.8-2.4-0.8
						s-2,0.3-2.4,0.8c-0.4,0.5-0.4,1.3-0.4,3.3s0.1,2.8,0.5,3.3c0.4,0.6,1,0.8,2.4,0.8c1.3,0,2-0.2,2.4-0.8
						C111.1,52.2,111.2,51.5,111.2,49.4z M135.7,54.8h-1.4v-8.5l-3.2,8.5h-1.4l-3.2-8.5v8.5h-1.3V44.1h1.8l3.4,8.9l3.4-8.9h1.8V54.8
						z M156.9,54.8h-1.6l-1.1-2.9h-4.5l-1.1,2.9h-1.5l4.1-10.7h1.4L156.9,54.8z M153.8,50.6l-1.8-4.8l-1.8,4.8H153.8z M174.5,45.4
						h-3.3v9.4h-1.4v-9.4h-3.3v-1.3h8.1V45.4z M201.2,57.8h-1.3V44.1h1.3V57.8z M234.5,51.6c0,2.5-1.3,3.3-3.5,3.3
						c-1.9,0-3.4-0.4-3.4-2.6h1.4c0,1,0.6,1.3,2.1,1.3c1.5,0,2.2-0.4,2.2-1.9c0-1.6-0.3-1.9-2.2-1.9h-1.6v-1.2h1.6
						c1.5,0,2.1-0.2,2.1-1.7c0-1.3-0.4-1.7-2.1-1.7c-1.5,0-2.1,0.3-2.1,1.3h-1.4c0-2,1.5-2.5,3.5-2.5c2.4,0,3.4,0.7,3.4,2.9
						c0,1-0.1,1.9-1.1,2.3C234.4,49.6,234.5,50.5,234.5,51.6z M255.1,49.5c0,2.2-0.1,3.1-0.7,3.9c-0.7,1.1-1.8,1.4-3.7,1.4h-3.8
						V44.1h3.8c2,0,3,0.3,3.7,1.4C254.9,46.3,255.1,47.2,255.1,49.5z M253.6,49.5c0-1.9-0.2-2.8-0.5-3.3c-0.4-0.6-1.1-0.8-2.5-0.8
						h-2.3v8.1h2.3c1.5,0,2.1-0.1,2.5-0.7C253.5,52.2,253.6,51.4,253.6,49.5z"/>
				</g>
			</g>
		</g>
	</g>
</g>
</svg>
