<svg xmlns="http://www.w3.org/2000/svg" width="91" height="38" viewBox="0 0 91 38">
    <g fill="#000" fill-rule="nonzero">
        <path d="M73.1 37.2c4.9 0 8.8-4 8.8-8.8 0-4.8-4-8.8-8.8-8.8-4.8 0-8.8 4-8.8 8.8 0 4.8 3.9 8.8 8.8 8.8zm0-15.1c3.4 0 6.2 2.8 6.2 6.2 0 3.4-2.8 6.2-6.2 6.2-3.4 0-6.2-2.8-6.2-6.2 0-3.4 2.7-6.2 6.2-6.2z"/>
        <path d="M73.1 37.3c4.9 0 8.9-4 8.9-8.9s-4-8.9-8.9-8.9-8.9 4-8.9 8.9 4 8.9 8.9 8.9zm0-17.7c4.8 0 8.7 3.9 8.7 8.7 0 4.8-3.9 8.7-8.7 8.7-4.8 0-8.7-3.9-8.7-8.7 0-4.8 3.8-8.7 8.7-8.7zm0 15.1c3.5 0 6.3-2.8 6.3-6.3s-2.8-6.3-6.3-6.3-6.3 2.8-6.3 6.3 2.8 6.3 6.3 6.3zm0-12.5c3.4 0 6.2 2.8 6.2 6.2 0 3.4-2.8 6.2-6.2 6.2-3.4 0-6.2-2.8-6.2-6.2 0-3.4 2.8-6.2 6.2-6.2zM15.4 37c4.9 0 8.8-4 8.8-8.8 0-4.8-4-8.8-8.8-8.8-4.8 0-8.8 4-8.8 8.8 0 4.8 4 8.8 8.8 8.8zm0-15c3.4 0 6.2 2.8 6.2 6.2 0 3.4-2.8 6.2-6.2 6.2-3.4 0-6.2-2.8-6.2-6.2 0-3.4 2.8-6.2 6.2-6.2z"/>
        <path d="M15.4 37.1c4.9 0 8.9-4 8.9-8.9s-4-8.9-8.9-8.9-8.9 4-8.9 8.9 4 8.9 8.9 8.9zm0-17.6c4.8 0 8.7 3.9 8.7 8.7 0 4.8-3.9 8.7-8.7 8.7-4.8 0-8.7-3.9-8.7-8.7 0-4.8 3.9-8.7 8.7-8.7zm0 15c3.5 0 6.3-2.8 6.3-6.3s-2.8-6.3-6.3-6.3-6.3 2.8-6.3 6.3 2.8 6.3 6.3 6.3zm0-12.4c3.4 0 6.2 2.8 6.2 6.2 0 3.4-2.8 6.2-6.2 6.2-3.4 0-6.2-2.8-6.2-6.2.1-3.5 2.8-6.2 6.2-6.2z"/>
        <path d="M65.6 29.2H36.3l-4.8.6-8.8-.3"/>
        <path d="M31.5 31.1l4.8-.5h29.3c.7 0 1.3-.6 1.3-1.3 0-.7-.6-1.3-1.3-1.3H36.2l-4.8.5-8.7-.3c-.7 0-1.3.5-1.3 1.3 0 .7.5 1.3 1.3 1.3l8.8.3zM5.6 28.3h2.2c.7 0 1.3-.6 1.3-1.3 0-.7-.6-1.3-1.3-1.3H5.6c-.8 0-1.5-.4-1.9-1.1l-.8-1.4c-.2-.4-.4-.9-.3-1.4L3.7 12c.1-.6.4-1.2.9-1.5l9-6c.6-.4.8-1.2.4-1.8-.4-.6-1.2-.8-1.8-.4l-9 6.1c-1.1.8-1.8 2-2 3.3L.1 21.5c-.1 1 .1 2.1.6 3l.8 1.5c.8 1.4 2.4 2.3 4.1 2.3z"/>
        <path d="M80.6 30.5s.1 0 0 0l4.6-.3c1.9-.1 4-.9 4.3-2.8l.7-4c.1-1-1-4.5-1-4.6 0 0-1.3-3.5-2.2-4.3-1.5-1.2-2.2-1.6-3-1.7L66.2 9.5c-.3 0-1.7-.4-2.2-.6C62.3 7.7 52.2.9 47.5.7 30.3.2 7.3 2.7 7 2.7c-.7.1-1.2.7-1.1 1.4.1.7.7 1.2 1.4 1.1.2 0 23.1-2.5 40.1-2 3.5.1 12.2 5.7 15.2 7.8l.1.1h.1c.4.2 2.6.8 2.9.8l17.8 3.3c.2 0 .5.1 1.7 1.1.4.4 1.3 2.6 1.5 3.2.4 1.4.8 3.1.9 3.5l-.6 4c-.1.2-.8.5-1.9.6l-4.6.3c-.7.1-1.2.7-1.2 1.4.1.7.6 1.2 1.3 1.2z"/>
        <path d="M56.7 13.3c.7 0 1.3-.5 1.3-1.2s-.5-1.3-1.2-1.4L12.5 8.5c-.7 0-1.3.5-1.4 1.2 0 .7.5 1.3 1.2 1.4l44.4 2.2z"/>
    </g>
</svg>
