<?xml version="1.0" encoding="UTF-8"?>
<svg width="9px" height="16px" viewBox="0 0 9 16" version="1.1" xmlns="http://www.w3.org/2000/svg" xmlns:xlink="http://www.w3.org/1999/xlink">
    <!-- Generator: sketchtool 50.2 (55047) - http://www.bohemiancoding.com/sketch -->
    <title>17B0FD68-E337-4744-8673-160BCCC0205E</title>
    <desc>Created with sketchtool.</desc>
    <defs></defs>
    <g id="Listing" stroke="none" stroke-width="1" fill="none" fill-rule="evenodd">
        <g id="Henderson-Listing-Hide-Filter-Desktop-HD" transform="translate(-1282.000000, -450.000000)" fill="#A5B1BA">
            <g id="Toolbar" transform="translate(135.000000, 440.000000)">
                <g id="Sort" transform="translate(920.000000, 0.000000)">
                    <g id="Triangles" transform="translate(227.000000, 10.000000)">
                        <polygon id="Triangle" points="4.5 16 9 11 0 11"></polygon>
                        <polygon id="Triangle" points="9 5 0 5 4.5 0"></polygon>
                    </g>
                </g>
            </g>
        </g>
    </g>
</svg>