<svg xmlns="http://www.w3.org/2000/svg" width="34" height="34" viewBox="0 0 34 34">
    <g fill="none" fill-rule="evenodd" opacity=".498" transform="translate(1 1)">
        <circle cx="16" cy="16" r="16" stroke="#B1A598" stroke-width="2"/>
        <path fill="#B1A598" fill-rule="nonzero" d="M16.528 21.768s.328-.036.496-.213c.154-.162.15-.468.15-.468s-.022-1.431.655-1.643c.667-.207 1.523 1.384 2.432 1.996.687.463 1.207.361 1.207.361l2.43-.033s1.27-.076.667-1.057c-.05-.08-.351-.726-1.805-2.05-1.523-1.388-1.319-1.163.515-3.563 1.117-1.46 1.564-2.353 1.424-2.734-.133-.365-.954-.269-.954-.269l-2.735.017s-.202-.027-.353.061c-.146.087-.241.288-.241.288s-.432 1.131-1.01 2.092c-1.217 2.03-1.703 2.136-1.903 2.01-.463-.293-.347-1.179-.347-1.809 0-1.966.304-2.785-.592-2.998-.296-.07-.515-.117-1.275-.125-.976-.01-1.802.004-2.27.228-.31.149-.55.483-.404.502.18.024.59.108.807.398.28.374.27 1.215.27 1.215s.161 2.314-.376 2.601c-.368.197-.873-.205-1.959-2.046a17.085 17.085 0 0 1-.976-1.985s-.08-.194-.225-.299c-.176-.126-.42-.166-.42-.166l-2.598.016s-.39.011-.534.178c-.126.147-.01.454-.01.454s2.034 4.67 4.338 7.025c2.112 2.158 4.509 2.016 4.509 2.016h1.087z"/>
    </g>
</svg>
